HW2
…
Make variables for the number of total flights and cancelled flights, and the proportion.

cancelled <- flights %>%
  select(month, dep_delay, arr_delay) %>%
  group_by(month) %>%
  mutate(total_flights = n()) %>%
  filter(is.na(dep_delay)|is.na(arr_delay)) %>%
  group_by(month) %>%
  mutate(cancel_flights = n(), prop = cancel_flights/total_flights) 
cancelled

# A tibble: 9,430 x 6
# Groups:   month [12]
   month dep_delay arr_delay total_flights cancel_flights   prop
   <int>     <dbl>     <dbl>         <int>          <int>  <dbl>
 1     1        -5        NA         27004            606 0.0224
 2     1        29        NA         27004            606 0.0224
 3     1        -5        NA         27004            606 0.0224
 4     1        29        NA         27004            606 0.0224
 5     1        59        NA         27004            606 0.0224
 6     1        22        NA         27004            606 0.0224
 7     1        46        NA         27004            606 0.0224
 8     1        NA        NA         27004            606 0.0224
 9     1        NA        NA         27004            606 0.0224
10     1        NA        NA         27004            606 0.0224
# … with 9,420 more rows
…
